{
    "version": 1,
    "builds": [
        {
        "src": "./main.py",
        "use": "@vercel/python"
    }],

    "routes":[{

                "src": "/(.*)",
                "dest": "/"
    }]


}